docs/examples/records/TEK0009.CSV

Record Length,2.500000e+03,,  -0.064000000000,   0.36520,
Sample Interval,2.000000e-04,,  -0.063800000000,   0.36480,
Trigger Point,3.200000000000e+02,,  -0.063600000000,   0.36600,
,,,  -0.063400000000,   0.36560,
,,,  -0.063200000000,   0.36560,
,,,  -0.063000000000,   0.36520,
Source,CH1,,  -0.062800000000,   0.36480,
Vertical Units,V,,  -0.062600000000,   0.36560,
Vertical Scale,1.000000e-02,,  -0.062400000000,   0.36560,
Vertical Offset,-3.484000e-01,,  -0.062200000000,   0.36480,
Horizontal Units,s,,  -0.062000000000,   0.36520,
Horizontal Scale,5.000000e-02,,  -0.061800000000,   0.36480,
Pt Fmt,Y,,  -0.061600000000,   0.36480,
Yzero,0.000000e+00,,  -0.061400000000,   0.36560,
Probe Atten,1.000000e+00,,  -0.061200000000,   0.36520,
Model Number,TDS2012B,,  -0.061000000000,   0.36560,
Serial Number,C102158,,  -0.060800000000,   0.36520,
Firmware Version,FV:v22.11,,  -0.060600000000,   0.36520,
,,,-00.060400000000,   0.36520,
,,,-00.060200000000,   0.36520,
,,,-00.060000000000,   0.36520,
,,,-00.059800000000,   0.36520,
,,,-00.059600000000,   0.36520,
,,,-00.059400000000,   0.36520,
,,,-00.059200000000,   0.36520,
,,,-00.059000000000,   0.36520,
,,,-00.058800000000,   0.36520,
,,,-00.058600000000,   0.36560,
,,,-00.058400000000,   0.36560,
,,,-00.058200000000,   0.36520,
,,,-00.058000000000,   0.36560,
,,,-00.057800000000,   0.36560,
,,,-00.057600000000,   0.36560,
,,,-00.057400000000,   0.36520,
,,,-00.057200000000,   0.36520,
,,,-00.057000000000,   0.36520,
,,,-00.056800000000,   0.36520,
,,,-00.056600000000,   0.36560,
,,,-00.056400000000,   0.36480,
,,,-00.056200000000,   0.36520,
,,,-00.056000000000,   0.36480,
,,,-00.055800000000,   0.36560,
,,,-00.055600000000,   0.36480,
,,,-00.055400000000,   0.36480,
,,,-00.055200000000,   0.36480,
,,,-00.055000000000,   0.36520,
,,,-00.054800000000,   0.36520,
,,,-00.054600000000,   0.36520,
,,,-00.054400000000,   0.36520,
,,,-00.054200000000,   0.36520,
,,,-00.054000000000,   0.36520,
,,,-00.053800000000,   0.36520,
,,,-00.053600000000,   0.36520,
,,,-00.053400000000,   0.36560,
,,,-00.053200000000,   0.36520,
,,,-00.053000000000,   0.36520,
,,,-00.052800000000,   0.36520,
,,,-00.052600000000,   0.36560,
,,,-00.052400000000,   0.36560,
,,,-00.052200000000,   0.36480,
,,,-00.052000000000,   0.36520,
,,,-00.051800000000,   0.36520,
,,,-00.051600000000,   0.36520,
,,,-00.051400000000,   0.36520,
,,,-00.051200000000,   0.36560,
,,,-00.051000000000,   0.36560,
,,,-00.050800000000,   0.36520,
,,,-00.050600000000,   0.36480,
,,,-00.050400000000,   0.36520,
,,,-00.050200000000,   0.36520,
,,,-00.050000000000,   0.36520,
,,,-00.049800000000,   0.36560,
,,,-00.049600000000,   0.36520,
,,,-00.049400000000,   0.36480,
,,,-00.049200000000,   0.36520,
,,,-00.049000000000,   0.36520,
,,,-00.048800000000,   0.36520,
,,,-00.048600000000,   0.36520,
,,,-00.048400000000,   0.36520,
,,,-00.048200000000,   0.36480,
,,,-00.048000000000,   0.36520,
,,,-00.047800000000,   0.36560,
,,,-00.047600000000,   0.36560,
,,,-00.047400000000,   0.36560,
,,,-00.047200000000,   0.36560,
,,,-00.047000000000,   0.36560,
,,,-00.046800000000,   0.36560,
,,,-00.046600000000,   0.36520,
,,,-00.046400000000,   0.36520,
,,,-00.046200000000,   0.36520,
,,,-00.046000000000,   0.36520,
,,,-00.045800000000,   0.36520,
,,,-00.045600000000,   0.36480,
,,,-00.045400000000,   0.36520,
,,,-00.045200000000,   0.36480,
,,,-00.045000000000,   0.36520,
,,,-00.044800000000,   0.36520,
,,,-00.044600000000,   0.36480,
,,,-00.044400000000,   0.36520,
,,,-00.044200000000,   0.36520,
,,,-00.044000000000,   0.36560,
,,,-00.043800000000,   0.36560,
,,,-00.043600000000,   0.36560,
,,,-00.043400000000,   0.36520,
,,,-00.043200000000,   0.36520,
,,,-00.043000000000,   0.36520,
,,,-00.042800000000,   0.36560,
,,,-00.042600000000,   0.36560,
,,,-00.042400000000,   0.36600,
,,,-00.042200000000,   0.36520,
,,,-00.042000000000,   0.36560,
,,,-00.041800000000,   0.36520,
,,,-00.041600000000,   0.36520,
,,,-00.041400000000,   0.36560,
,,,-00.041200000000,   0.36520,
,,,-00.041000000000,   0.36560,
,,,-00.040800000000,   0.36520,
,,,-00.040600000000,   0.36480,
,,,-00.040400000000,   0.36520,
,,,-00.040200000000,   0.36520,
,,,-00.040000000000,   0.36560,
,,,-00.039800000000,   0.36520,
,,,-00.039600000000,   0.36520,
,,,-00.039400000000,   0.36520,
,,,-00.039200000000,   0.36480,
,,,-00.039000000000,   0.36480,
,,,-00.038800000000,   0.36560,
,,,-00.038600000000,   0.36520,
,,,-00.038400000000,   0.36520,
,,,-00.038200000000,   0.36480,
,,,-00.038000000000,   0.36520,
,,,-00.037800000000,   0.36480,
,,,-00.037600000000,   0.36520,
,,,-00.037400000000,   0.36520,
,,,-00.037200000000,   0.36480,
,,,-00.037000000000,   0.36520,
,,,-00.036800000000,   0.36520,
,,,-00.036600000000,   0.36520,
,,,-00.036400000000,   0.36600,
,,,-00.036200000000,   0.36520,
,,,-00.036000000000,   0.36520,
,,,-00.035800000000,   0.36520,
,,,-00.035600000000,   0.36480,
,,,-00.035400000000,   0.36560,
,,,-00.035200000000,   0.36520,
,,,-00.035000000000,   0.36520,
,,,-00.034800000000,   0.36560,
,,,-00.034600000000,   0.36520,
,,,-00.034400000000,   0.36520,
,,,-00.034200000000,   0.36520,
,,,-00.034000000000,   0.36480,
,,,-00.033800000000,   0.36520,
,,,-00.033600000000,   0.36480,
,,,-00.033400000000,   0.36560,
,,,-00.033200000000,   0.36520,
,,,-00.033000000000,   0.36520,
,,,-00.032800000000,   0.36520,
,,,-00.032600000000,   0.36520,
,,,-00.032400000000,   0.36520,
,,,-00.032200000000,   0.36560,
,,,-00.032000000000,   0.36560,
,,,-00.031800000000,   0.36520,
,,,-00.031600000000,   0.36520,
,,,-00.031400000000,   0.36560,
,,,-00.031200000000,   0.36520,
,,,-00.031000000000,   0.36480,
,,,-00.030800000000,   0.36480,
,,,-00.030600000000,   0.36520,
,,,-00.030400000000,   0.36520,
,,,-00.030200000000,   0.36520,
,,,-00.030000000000,   0.36560,
,,,-00.029800000000,   0.36480,
,,,-00.029600000000,   0.36560,
,,,-00.029400000000,   0.36480,
,,,-00.029200000000,   0.36600,
,,,-00.029000000000,   0.36560,
,,,-00.028800000000,   0.36520,
,,,-00.028600000000,   0.36480,
,,,-00.028400000000,   0.36520,
,,,-00.028200000000,   0.36560,
,,,-00.028000000000,   0.36560,
,,,-00.027800000000,   0.36480,
,,,-00.027600000000,   0.36560,
,,,-00.027400000000,   0.36520,
,,,-00.027200000000,   0.36480,
,,,-00.027000000000,   0.36560,
,,,-00.026800000000,   0.36520,
,,,-00.026600000000,   0.36480,
,,,-00.026400000000,   0.36520,
,,,-00.026200000000,   0.36600,
,,,-00.026000000000,   0.36560,
,,,-00.025800000000,   0.36520,
,,,-00.025600000000,   0.36520,
,,,-00.025400000000,   0.36560,
,,,-00.025200000000,   0.36520,
,,,-00.025000000000,   0.36520,
,,,-00.024800000000,   0.36560,
,,,-00.024600000000,   0.36560,
,,,-00.024400000000,   0.36560,
,,,-00.024200000000,   0.36560,
,,,-00.024000000000,   0.36520,
,,,-00.023800000000,   0.36520,
,,,-00.023600000000,   0.36560,
,,,-00.023400000000,   0.36560,
,,,-00.023200000000,   0.36560,
,,,-00.023000000000,   0.36560,
,,,-00.022800000000,   0.36560,
,,,-00.022600000000,   0.36560,
,,,-00.022400000000,   0.36560,
,,,-00.022200000000,   0.36560,
,,,-00.022000000000,   0.36520,
,,,-00.021800000000,   0.36520,
,,,-00.021600000000,   0.36520,
,,,-00.021400000000,   0.36520,
,,,-00.021200000000,   0.36520,
,,,-00.021000000000,   0.36480,
,,,-00.020800000000,   0.36560,
,,,-00.020600000000,   0.36600,
,,,-00.020400000000,   0.36520,
,,,-00.020200000000,   0.36520,
,,,-00.020000000000,   0.36520,
,,,-00.019800000000,   0.36600,
,,,-00.019600000000,   0.36520,
,,,-00.019400000000,   0.36520,
,,,-00.019200000000,   0.36520,
,,,-00.019000000000,   0.36480,
,,,-00.018800000000,   0.36520,
,,,-00.018600000000,   0.36480,
,,,-00.018400000000,   0.36560,
,,,-00.018200000000,   0.36560,
,,,-00.018000000000,   0.36520,
,,,-00.017800000000,   0.36560,
,,,-00.017600000000,   0.36560,
,,,-00.017400000000,   0.36560,
,,,-00.017200000000,   0.36520,
,,,-00.017000000000,   0.36520,
,,,-00.016800000000,   0.36520,
,,,-00.016600000000,   0.36560,
,,,-00.016400000000,   0.36560,
,,,-00.016200000000,   0.36520,
,,,-00.016000000000,   0.36520,
,,,-00.015800000000,   0.36520,
,,,-00.015600000000,   0.36520,
,,,-00.015400000000,   0.36600,
,,,-00.015200000000,   0.36560,
,,,-00.015000000000,   0.36560,
,,,-00.014800000000,   0.36600,
,,,-00.014600000000,   0.36560,
,,,-00.014400000000,   0.36520,
,,,-00.014200000000,   0.36560,
,,,-00.014000000000,   0.36560,
,,,-00.013800000000,   0.36560,
,,,-00.013600000000,   0.36520,
,,,-00.013400000000,   0.36520,
,,,-00.013200000000,   0.36560,
,,,-00.013000000000,   0.36560,
,,,-00.012800000000,   0.36520,
,,,-00.012600000000,   0.36560,
,,,-00.012400000000,   0.36520,
,,,-00.012200000000,   0.36560,
,,,-00.012000000000,   0.36560,
,,,-00.011800000000,   0.36520,
,,,-00.011600000000,   0.36520,
,,,-00.011400000000,   0.36560,
,,,-00.011200000000,   0.36520,
,,,-00.011000000000,   0.36520,
,,,-00.010800000000,   0.36520,
,,,-00.010600000000,   0.36520,
,,,-00.010400000000,   0.36520,
,,,-00.010200000000,   0.36520,
,,,-00.010000000000,   0.36480,
,,,-00.009800000000,   0.36560,
,,,-00.009600000000,   0.36520,
,,,-00.009400000000,   0.36560,
,,,-00.009200000000,   0.36560,
,,,-00.009000000000,   0.36520,
,,,-00.008800000000,   0.36520,
,,,-00.008600000000,   0.36520,
,,,-00.008400000000,   0.36560,
,,,-00.008200000000,   0.36560,
,,,-00.008000000000,   0.36520,
,,,-00.007800000000,   0.36480,
,,,-00.007600000000,   0.36400,
,,,-00.007400000000,   0.36360,
,,,-00.007200000000,   0.36360,
,,,-00.007000000000,   0.36280,
,,,-00.006800000000,   0.36240,
,,,-00.006600000000,   0.36280,
,,,-00.006400000000,   0.36280,
,,,-00.006200000000,   0.36160,
,,,-00.006000000000,   0.36120,
,,,-00.005800000000,   0.36160,
,,,-00.005600000000,   0.36120,
,,,-00.005400000000,   0.36120,
,,,-00.005200000000,   0.36040,
,,,-00.005000000000,   0.35920,
,,,-00.004800000000,   0.35960,
,,,-00.004600000000,   0.35920,
,,,-00.004400000000,   0.35960,
,,,-00.004200000000,   0.35920,
,,,-00.004000000000,   0.35840,
,,,-00.003800000000,   0.35840,
,,,-00.003600000000,   0.35760,
,,,-00.003400000000,   0.35800,
,,,-00.003200000000,   0.35800,
,,,-00.003000000000,   0.35720,
,,,-00.002800000000,   0.35680,
,,,-00.002600000000,   0.35640,
,,,-00.002400000000,   0.35640,
,,,-00.002200000000,   0.35600,
,,,-00.002000000000,   0.35520,
,,,-00.001800000000,   0.35520,
,,,-00.001600000000,   0.35520,
,,,-00.001400000000,   0.35520,
,,,-00.001200000000,   0.35480,
,,,-00.001000000000,   0.35440,
,,,-00.000800000000,   0.35440,
,,,-00.000600000000,   0.35360,
,,,-00.000400000000,   0.35440,
,,,-00.000200000000,   0.35360,
,,,-00.000000000000,   0.35280,
,,,00.000200000000,   0.35280,
,,,00.000400000000,   0.35200,
,,,00.000600000000,   0.35280,
,,,00.000800000000,   0.35160,
,,,00.001000000000,   0.35160,
,,,00.001200000000,   0.35080,
,,,00.001400000000,   0.35120,
,,,00.001600000000,   0.35080,
,,,00.001800000000,   0.35080,
,,,00.002000000000,   0.35040,
,,,00.002200000000,   0.35000,
,,,00.002400000000,   0.34960,
,,,00.002600000000,   0.34960,
,,,00.002800000000,   0.34920,
,,,00.003000000000,   0.34880,
,,,00.003200000000,   0.34840,
,,,00.003400000000,   0.34760,
,,,00.003600000000,   0.34800,
,,,00.003800000000,   0.34760,
,,,00.004000000000,   0.34720,
,,,00.004200000000,   0.34720,
,,,00.004400000000,   0.34680,
,,,00.004600000000,   0.34680,
,,,00.004800000000,   0.34640,
,,,00.005000000000,   0.34640,
,,,00.005200000000,   0.34600,
,,,00.005400000000,   0.34560,
,,,00.005600000000,   0.34600,
,,,00.005800000000,   0.34560,
,,,00.006000000000,   0.34520,
,,,00.006200000000,   0.34480,
,,,00.006400000000,   0.34440,
,,,00.006600000000,   0.34440,
,,,00.006800000000,   0.34440,
,,,00.007000000000,   0.34360,
,,,00.007200000000,   0.34400,
,,,00.007400000000,   0.34320,
,,,00.007600000000,   0.34320,
,,,00.007800000000,   0.34280,
,,,00.008000000000,   0.34320,
,,,00.008200000000,   0.34240,
,,,00.008400000000,   0.34240,
,,,00.008600000000,   0.34240,
,,,00.008800000000,   0.34200,
,,,00.009000000000,   0.34200,
,,,00.009200000000,   0.34080,
,,,00.009400000000,   0.34080,
,,,00.009600000000,   0.34040,
,,,00.009800000000,   0.34080,
,,,00.010000000000,   0.34040,
,,,00.010200000000,   0.34000,
,,,00.010400000000,   0.34000,
,,,00.010600000000,   0.33960,
,,,00.010800000000,   0.33960,
,,,00.011000000000,   0.33920,
,,,00.011200000000,   0.33960,
,,,00.011400000000,   0.33880,
,,,00.011600000000,   0.33880,
,,,00.011800000000,   0.33920,
,,,00.012000000000,   0.33880,
,,,00.012200000000,   0.33880,
,,,00.012400000000,   0.33880,
,,,00.012600000000,   0.33840,
,,,00.012800000000,   0.33880,
,,,00.013000000000,   0.33800,
,,,00.013200000000,   0.33880,
,,,00.013400000000,   0.33800,
,,,00.013600000000,   0.33840,
,,,00.013800000000,   0.33840,
,,,00.014000000000,   0.33840,
,,,00.014200000000,   0.33840,
,,,00.014400000000,   0.33800,
,,,00.014600000000,   0.33840,
,,,00.014800000000,   0.33800,
,,,00.015000000000,   0.33720,
,,,00.015200000000,   0.33800,
,,,00.015400000000,   0.33760,
,,,00.015600000000,   0.33880,
,,,00.015800000000,   0.33800,
,,,00.016000000000,   0.33800,
,,,00.016200000000,   0.33800,
,,,00.016400000000,   0.33800,
,,,00.016600000000,   0.33840,
,,,00.016800000000,   0.33800,
,,,00.017000000000,   0.33800,
,,,00.017200000000,   0.33800,
,,,00.017400000000,   0.33800,
,,,00.017600000000,   0.33800,
,,,00.017800000000,   0.33840,
,,,00.018000000000,   0.33760,
,,,00.018200000000,   0.33800,
,,,00.018400000000,   0.33720,
,,,00.018600000000,   0.33800,
,,,00.018800000000,   0.33840,
,,,00.019000000000,   0.33760,
,,,00.019200000000,   0.33800,
,,,00.019400000000,   0.33800,
,,,00.019600000000,   0.33800,
,,,00.019800000000,   0.33800,
,,,00.020000000000,   0.33800,
,,,00.020200000000,   0.33800,
,,,00.020400000000,   0.33800,
,,,00.020600000000,   0.33840,
,,,00.020800000000,   0.33800,
,,,00.021000000000,   0.33760,
,,,00.021200000000,   0.33800,
,,,00.021400000000,   0.33840,
,,,00.021600000000,   0.33760,
,,,00.021800000000,   0.33760,
,,,00.022000000000,   0.33800,
,,,00.022200000000,   0.33840,
,,,00.022400000000,   0.33800,
,,,00.022600000000,   0.33840,
,,,00.022800000000,   0.33840,
,,,00.023000000000,   0.33840,
,,,00.023200000000,   0.33840,
,,,00.023400000000,   0.33760,
,,,00.023600000000,   0.33800,
,,,00.023800000000,   0.33840,
,,,00.024000000000,   0.33840,
,,,00.024200000000,   0.33840,
,,,00.024400000000,   0.33840,
,,,00.024600000000,   0.33840,
,,,00.024800000000,   0.33840,
,,,00.025000000000,   0.33880,
,,,00.025200000000,   0.33840,
,,,00.025400000000,   0.33840,
,,,00.025600000000,   0.33840,
,,,00.025800000000,   0.33880,
,,,00.026000000000,   0.33880,
,,,00.026200000000,   0.33840,
,,,00.026400000000,   0.33800,
,,,00.026600000000,   0.33840,
,,,00.026800000000,   0.33920,
,,,00.027000000000,   0.33880,
,,,00.027200000000,   0.33880,
,,,00.027400000000,   0.33800,
,,,00.027600000000,   0.33880,
,,,00.027800000000,   0.33880,
,,,00.028000000000,   0.33840,
,,,00.028200000000,   0.33920,
,,,00.028400000000,   0.33840,
,,,00.028600000000,   0.33920,
,,,00.028800000000,   0.33840,
,,,00.029000000000,   0.33880,
,,,00.029200000000,   0.33920,
,,,00.029400000000,   0.33880,
,,,00.029600000000,   0.33880,
,,,00.029800000000,   0.33920,
,,,00.030000000000,   0.33880,
,,,00.030200000000,   0.33920,
,,,00.030400000000,   0.33880,
,,,00.030600000000,   0.33880,
,,,00.030800000000,   0.33880,
,,,00.031000000000,   0.33960,
,,,00.031200000000,   0.33920,
,,,00.031400000000,   0.33920,
,,,00.031600000000,   0.33960,
,,,00.031800000000,   0.33960,
,,,00.032000000000,   0.33960,
,,,00.032200000000,   0.33920,
,,,00.032400000000,   0.33920,
,,,00.032600000000,   0.33920,
,,,00.032800000000,   0.33920,
,,,00.033000000000,   0.33960,
,,,00.033200000000,   0.34000,
,,,00.033400000000,   0.34000,
,,,00.033600000000,   0.34000,
,,,00.033800000000,   0.33960,
,,,00.034000000000,   0.34000,
,,,00.034200000000,   0.33960,
,,,00.034400000000,   0.33920,
,,,00.034600000000,   0.34000,
,,,00.034800000000,   0.34000,
,,,00.035000000000,   0.34000,
,,,00.035200000000,   0.34000,
,,,00.035400000000,   0.33960,
,,,00.035600000000,   0.33960,
,,,00.035800000000,   0.34000,
,,,00.036000000000,   0.34040,
,,,00.036200000000,   0.34000,
,,,00.036400000000,   0.34000,
,,,00.036600000000,   0.34040,
,,,00.036800000000,   0.34080,
,,,00.037000000000,   0.34080,
,,,00.037200000000,   0.34040,
,,,00.037400000000,   0.34000,
,,,00.037600000000,   0.34000,
,,,00.037800000000,   0.34000,
,,,00.038000000000,   0.34120,
,,,00.038200000000,   0.34040,
,,,00.038400000000,   0.34000,
,,,00.038600000000,   0.34080,
,,,00.038800000000,   0.34040,
,,,00.039000000000,   0.34120,
,,,00.039200000000,   0.34040,
,,,00.039400000000,   0.34080,
,,,00.039600000000,   0.34080,
,,,00.039800000000,   0.34120,
,,,00.040000000000,   0.34080,
,,,00.040200000000,   0.34080,
,,,00.040400000000,   0.34080,
,,,00.040600000000,   0.34040,
,,,00.040800000000,   0.34080,
,,,00.041000000000,   0.34080,
,,,00.041200000000,   0.34080,
,,,00.041400000000,   0.34080,
,,,00.041600000000,   0.34120,
,,,00.041800000000,   0.34120,
,,,00.042000000000,   0.34120,
,,,00.042200000000,   0.34120,
,,,00.042400000000,   0.34120,
,,,00.042600000000,   0.34120,
,,,00.042800000000,   0.34160,
,,,00.043000000000,   0.34120,
,,,00.043200000000,   0.34080,
,,,00.043400000000,   0.34160,
,,,00.043600000000,   0.34160,
,,,00.043800000000,   0.34120,
,,,00.044000000000,   0.34120,
,,,00.044200000000,   0.34120,
,,,00.044400000000,   0.34120,
,,,00.044600000000,   0.34160,
,,,00.044800000000,   0.34160,
,,,00.045000000000,   0.34120,
,,,00.045200000000,   0.34200,
,,,00.045400000000,   0.34200,
,,,00.045600000000,   0.34200,
,,,00.045800000000,   0.34160,
,,,00.046000000000,   0.34160,
,,,00.046200000000,   0.34200,
,,,00.046400000000,   0.34160,
,,,00.046600000000,   0.34160,
,,,00.046800000000,   0.34200,
,,,00.047000000000,   0.34200,
,,,00.047200000000,   0.34200,
,,,00.047400000000,   0.34240,
,,,00.047600000000,   0.34200,
,,,00.047800000000,   0.34240,
,,,00.048000000000,   0.34160,
,,,00.048200000000,   0.34160,
,,,00.048400000000,   0.34200,
,,,00.048600000000,   0.34200,
,,,00.048800000000,   0.34160,
,,,00.049000000000,   0.34200,
,,,00.049200000000,   0.34200,
,,,00.049400000000,   0.34240,
,,,00.049600000000,   0.34200,
,,,00.049800000000,   0.34280,
,,,00.050000000000,   0.34240,
,,,00.050200000000,   0.34200,
,,,00.050400000000,   0.34200,
,,,00.050600000000,   0.34280,
,,,00.050800000000,   0.34240,
,,,00.051000000000,   0.34200,
,,,00.051200000000,   0.34320,
,,,00.051400000000,   0.34280,
,,,00.051600000000,   0.34200,
,,,00.051800000000,   0.34240,
,,,00.052000000000,   0.34280,
,,,00.052200000000,   0.34240,
,,,00.052400000000,   0.34240,
,,,00.052600000000,   0.34280,
,,,00.052800000000,   0.34320,
,,,00.053000000000,   0.34320,
,,,00.053200000000,   0.34320,
,,,00.053400000000,   0.34280,
,,,00.053600000000,   0.34280,
,,,00.053800000000,   0.34320,
,,,00.054000000000,   0.34320,
,,,00.054200000000,   0.34280,
,,,00.054400000000,   0.34280,
,,,00.054600000000,   0.34280,
,,,00.054800000000,   0.34280,
,,,00.055000000000,   0.34280,
,,,00.055200000000,   0.34280,
,,,00.055400000000,   0.34320,
,,,00.055600000000,   0.34320,
,,,00.055800000000,   0.34320,
,,,00.056000000000,   0.34320,
,,,00.056200000000,   0.34320,
,,,00.056400000000,   0.34360,
,,,00.056600000000,   0.34360,
,,,00.056800000000,   0.34360,
,,,00.057000000000,   0.34360,
,,,00.057200000000,   0.34400,
,,,00.057400000000,   0.34360,
,,,00.057600000000,   0.34360,
,,,00.057800000000,   0.34360,
,,,00.058000000000,   0.34400,
,,,00.058200000000,   0.34400,
,,,00.058400000000,   0.34400,
,,,00.058600000000,   0.34440,
,,,00.058800000000,   0.34360,
,,,00.059000000000,   0.34440,
,,,00.059200000000,   0.34400,
,,,00.059400000000,   0.34400,
,,,00.059600000000,   0.34400,
,,,00.059800000000,   0.34360,
,,,00.060000000000,   0.34400,
,,,00.060200000000,   0.34400,
,,,00.060400000000,   0.34360,
