docs/examples/records/TEK0000.CSV

Record Length,2.500000e+03,,  -1.720000000000,   0.30000,
Sample Interval,1.000000e-03,,  -1.719000000000,   0.30000,
Trigger Point,1.720000000000e+03,,  -1.718000000000,   0.30400,
,,,  -1.717000000000,   0.29800,
,,,  -1.716000000000,   0.30000,
,,,  -1.715000000000,   0.30000,
Source,CH1,,  -1.714000000000,   0.30000,
Vertical Units,V,,  -1.713000000000,   0.29800,
Vertical Scale,5.000000e-02,,  -1.712000000000,   0.30000,
Vertical Offset,-4.480000e-01,,  -1.711000000000,   0.30200,
Horizontal Units,s,,  -1.710000000000,   0.29800,
Horizontal Scale,2.500000e-01,,  -1.709000000000,   0.30000,
Pt Fmt,Y,,  -1.708000000000,   0.30000,
Yzero,0.000000e+00,,  -1.707000000000,   0.30000,
Probe Atten,1.000000e+00,,  -1.706000000000,   0.29800,
Model Number,TDS2012B,,  -1.705000000000,   0.30000,
Serial Number,C102158,,  -1.704000000000,   0.29800,
Firmware Version,FV:v22.11,,  -1.703000000000,   0.30000,
,,,-01.702000000000,   0.30000,
,,,-01.701000000000,   0.29800,
,,,-01.700000000000,   0.30000,
,,,-01.699000000000,   0.30000,
,,,-01.698000000000,   0.30000,
,,,-01.697000000000,   0.30000,
,,,-01.696000000000,   0.29800,
,,,-01.695000000000,   0.30000,
,,,-01.694000000000,   0.30000,
,,,-01.693000000000,   0.30000,
,,,-01.692000000000,   0.30000,
,,,-01.691000000000,   0.30000,
,,,-01.690000000000,   0.30000,
,,,-01.689000000000,   0.29800,
,,,-01.688000000000,   0.30000,
,,,-01.687000000000,   0.30200,
,,,-01.686000000000,   0.30200,
,,,-01.685000000000,   0.30000,
,,,-01.684000000000,   0.30000,
,,,-01.683000000000,   0.30000,
,,,-01.682000000000,   0.30000,
,,,-01.681000000000,   0.30000,
,,,-01.680000000000,   0.29800,
,,,-01.679000000000,   0.30200,
,,,-01.678000000000,   0.30000,
,,,-01.677000000000,   0.30000,
,,,-01.676000000000,   0.30000,
,,,-01.675000000000,   0.30200,
,,,-01.674000000000,   0.30000,
,,,-01.673000000000,   0.30000,
,,,-01.672000000000,   0.30200,
,,,-01.671000000000,   0.30000,
,,,-01.670000000000,   0.30000,
,,,-01.669000000000,   0.30400,
,,,-01.668000000000,   0.30200,
,,,-01.667000000000,   0.30000,
,,,-01.666000000000,   0.29800,
,,,-01.665000000000,   0.30000,
,,,-01.664000000000,   0.29800,
,,,-01.663000000000,   0.30000,
,,,-01.662000000000,   0.30000,
,,,-01.661000000000,   0.30000,
,,,-01.660000000000,   0.30000,
,,,-01.659000000000,   0.30000,
,,,-01.658000000000,   0.30000,
,,,-01.657000000000,   0.30200,
,,,-01.656000000000,   0.30000,
,,,-01.655000000000,   0.29800,
,,,-01.654000000000,   0.30200,
,,,-01.653000000000,   0.30200,
,,,-01.652000000000,   0.30000,
,,,-01.651000000000,   0.30000,
,,,-01.650000000000,   0.29800,
,,,-01.649000000000,   0.30200,
,,,-01.648000000000,   0.29800,
,,,-01.647000000000,   0.30000,
,,,-01.646000000000,   0.30200,
,,,-01.645000000000,   0.30000,
,,,-01.644000000000,   0.30000,
,,,-01.643000000000,   0.30200,
,,,-01.642000000000,   0.30000,
,,,-01.641000000000,   0.30000,
,,,-01.640000000000,   0.30000,
,,,-01.639000000000,   0.30000,
,,,-01.638000000000,   0.30000,
,,,-01.637000000000,   0.29800,
,,,-01.636000000000,   0.29800,
,,,-01.635000000000,   0.30000,
,,,-01.634000000000,   0.30000,
,,,-01.633000000000,   0.30000,
,,,-01.632000000000,   0.30200,
,,,-01.631000000000,   0.30000,
,,,-01.630000000000,   0.30000,
,,,-01.629000000000,   0.29800,
,,,-01.628000000000,   0.30000,
,,,-01.627000000000,   0.29800,
,,,-01.626000000000,   0.30000,
,,,-01.625000000000,   0.30000,
,,,-01.624000000000,   0.30000,
,,,-01.623000000000,   0.29800,
,,,-01.622000000000,   0.30200,
,,,-01.621000000000,   0.30000,
,,,-01.620000000000,   0.30000,
,,,-01.619000000000,   0.30000,
,,,-01.618000000000,   0.30000,
,,,-01.617000000000,   0.30000,
,,,-01.616000000000,   0.30000,
,,,-01.615000000000,   0.30000,
,,,-01.614000000000,   0.30200,
,,,-01.613000000000,   0.30000,
,,,-01.612000000000,   0.30000,
,,,-01.611000000000,   0.30400,
,,,-01.610000000000,   0.30000,
,,,-01.609000000000,   0.30200,
,,,-01.608000000000,   0.30200,
,,,-01.607000000000,   0.29800,
,,,-01.606000000000,   0.30200,
,,,-01.605000000000,   0.30200,
,,,-01.604000000000,   0.30000,
,,,-01.603000000000,   0.30000,
,,,-01.602000000000,   0.30200,
,,,-01.601000000000,   0.30000,
,,,-01.600000000000,   0.30000,
,,,-01.599000000000,   0.30000,
,,,-01.598000000000,   0.30200,
,,,-01.597000000000,   0.29800,
,,,-01.596000000000,   0.29800,
,,,-01.595000000000,   0.30000,
,,,-01.594000000000,   0.30000,
,,,-01.593000000000,   0.30000,
,,,-01.592000000000,   0.29800,
,,,-01.591000000000,   0.29800,
,,,-01.590000000000,   0.30000,
,,,-01.589000000000,   0.30000,
,,,-01.588000000000,   0.30000,
,,,-01.587000000000,   0.30000,
,,,-01.586000000000,   0.30200,
,,,-01.585000000000,   0.30000,
,,,-01.584000000000,   0.30200,
,,,-01.583000000000,   0.30200,
,,,-01.582000000000,   0.30000,
,,,-01.581000000000,   0.30000,
,,,-01.580000000000,   0.29800,
,,,-01.579000000000,   0.30200,
,,,-01.578000000000,   0.30200,
,,,-01.577000000000,   0.30000,
,,,-01.576000000000,   0.29800,
,,,-01.575000000000,   0.30000,
,,,-01.574000000000,   0.30000,
,,,-01.573000000000,   0.30000,
,,,-01.572000000000,   0.30000,
,,,-01.571000000000,   0.30000,
,,,-01.570000000000,   0.30000,
,,,-01.569000000000,   0.29800,
,,,-01.568000000000,   0.29800,
,,,-01.567000000000,   0.30000,
,,,-01.566000000000,   0.29800,
,,,-01.565000000000,   0.29800,
,,,-01.564000000000,   0.29800,
,,,-01.563000000000,   0.30200,
,,,-01.562000000000,   0.30000,
,,,-01.561000000000,   0.30200,
,,,-01.560000000000,   0.30000,
,,,-01.559000000000,   0.30200,
,,,-01.558000000000,   0.30000,
,,,-01.557000000000,   0.30200,
,,,-01.556000000000,   0.29800,
,,,-01.555000000000,   0.30000,
,,,-01.554000000000,   0.30000,
,,,-01.553000000000,   0.29800,
,,,-01.552000000000,   0.29800,
,,,-01.551000000000,   0.29800,
,,,-01.550000000000,   0.30000,
,,,-01.549000000000,   0.30000,
,,,-01.548000000000,   0.30000,
,,,-01.547000000000,   0.30000,
,,,-01.546000000000,   0.30000,
,,,-01.545000000000,   0.29800,
,,,-01.544000000000,   0.29800,
,,,-01.543000000000,   0.30000,
,,,-01.542000000000,   0.30000,
,,,-01.541000000000,   0.30200,
,,,-01.540000000000,   0.30000,
,,,-01.539000000000,   0.30000,
,,,-01.538000000000,   0.30200,
,,,-01.537000000000,   0.30000,
,,,-01.536000000000,   0.30000,
,,,-01.535000000000,   0.29800,
,,,-01.534000000000,   0.30200,
,,,-01.533000000000,   0.30000,
,,,-01.532000000000,   0.30000,
,,,-01.531000000000,   0.29800,
,,,-01.530000000000,   0.30000,
,,,-01.529000000000,   0.30200,
,,,-01.528000000000,   0.30400,
,,,-01.527000000000,   0.30000,
,,,-01.526000000000,   0.30000,
,,,-01.525000000000,   0.30000,
,,,-01.524000000000,   0.30000,
,,,-01.523000000000,   0.30000,
,,,-01.522000000000,   0.30000,
,,,-01.521000000000,   0.30000,
,,,-01.520000000000,   0.30000,
,,,-01.519000000000,   0.30000,
,,,-01.518000000000,   0.30000,
,,,-01.517000000000,   0.30000,
,,,-01.516000000000,   0.30000,
,,,-01.515000000000,   0.29800,
,,,-01.514000000000,   0.30000,
,,,-01.513000000000,   0.29800,
,,,-01.512000000000,   0.30000,
,,,-01.511000000000,   0.30200,
,,,-01.510000000000,   0.30000,
,,,-01.509000000000,   0.30000,
,,,-01.508000000000,   0.30000,
,,,-01.507000000000,   0.29800,
,,,-01.506000000000,   0.29800,
,,,-01.505000000000,   0.30000,
,,,-01.504000000000,   0.30000,
,,,-01.503000000000,   0.30200,
,,,-01.502000000000,   0.29800,
,,,-01.501000000000,   0.29800,
,,,-01.500000000000,   0.30000,
,,,-01.499000000000,   0.30000,
,,,-01.498000000000,   0.30000,
,,,-01.497000000000,   0.29800,
,,,-01.496000000000,   0.30000,
,,,-01.495000000000,   0.30000,
,,,-01.494000000000,   0.30000,
,,,-01.493000000000,   0.30000,
,,,-01.492000000000,   0.30000,
,,,-01.491000000000,   0.30000,
,,,-01.490000000000,   0.30000,
,,,-01.489000000000,   0.30000,
,,,-01.488000000000,   0.30000,
,,,-01.487000000000,   0.29800,
,,,-01.486000000000,   0.30000,
,,,-01.485000000000,   0.30000,
,,,-01.484000000000,   0.30000,
,,,-01.483000000000,   0.30000,
,,,-01.482000000000,   0.30000,
,,,-01.481000000000,   0.30000,
,,,-01.480000000000,   0.30000,
,,,-01.479000000000,   0.30200,
,,,-01.478000000000,   0.30000,
,,,-01.477000000000,   0.30000,
,,,-01.476000000000,   0.30000,
,,,-01.475000000000,   0.30000,
,,,-01.474000000000,   0.30000,
,,,-01.473000000000,   0.30000,
,,,-01.472000000000,   0.30000,
,,,-01.471000000000,   0.30200,
,,,-01.470000000000,   0.30000,
,,,-01.469000000000,   0.30000,
,,,-01.468000000000,   0.30400,
,,,-01.467000000000,   0.30000,
,,,-01.466000000000,   0.30000,
,,,-01.465000000000,   0.30000,
,,,-01.464000000000,   0.30200,
,,,-01.463000000000,   0.29800,
,,,-01.462000000000,   0.30000,
,,,-01.461000000000,   0.30200,
,,,-01.460000000000,   0.30200,
,,,-01.459000000000,   0.30000,
,,,-01.458000000000,   0.29800,
,,,-01.457000000000,   0.30000,
,,,-01.456000000000,   0.30000,
,,,-01.455000000000,   0.30200,
,,,-01.454000000000,   0.29800,
,,,-01.453000000000,   0.30000,
,,,-01.452000000000,   0.30000,
,,,-01.451000000000,   0.29800,
,,,-01.450000000000,   0.30000,
,,,-01.449000000000,   0.29800,
,,,-01.448000000000,   0.30000,
,,,-01.447000000000,   0.30000,
,,,-01.446000000000,   0.29800,
,,,-01.445000000000,   0.30000,
,,,-01.444000000000,   0.30000,
,,,-01.443000000000,   0.29800,
,,,-01.442000000000,   0.30000,
,,,-01.441000000000,   0.29800,
,,,-01.440000000000,   0.30200,
,,,-01.439000000000,   0.30000,
,,,-01.438000000000,   0.30000,
,,,-01.437000000000,   0.30000,
,,,-01.436000000000,   0.29800,
,,,-01.435000000000,   0.30000,
,,,-01.434000000000,   0.30000,
,,,-01.433000000000,   0.30000,
,,,-01.432000000000,   0.30200,
,,,-01.431000000000,   0.30000,
,,,-01.430000000000,   0.30000,
,,,-01.429000000000,   0.30000,
,,,-01.428000000000,   0.30000,
,,,-01.427000000000,   0.30200,
,,,-01.426000000000,   0.29800,
,,,-01.425000000000,   0.30000,
,,,-01.424000000000,   0.30000,
,,,-01.423000000000,   0.30000,
,,,-01.422000000000,   0.30000,
,,,-01.421000000000,   0.29800,
,,,-01.420000000000,   0.30000,
,,,-01.419000000000,   0.30200,
,,,-01.418000000000,   0.30000,
,,,-01.417000000000,   0.30200,
,,,-01.416000000000,   0.30000,
,,,-01.415000000000,   0.30000,
,,,-01.414000000000,   0.30000,
,,,-01.413000000000,   0.29800,
,,,-01.412000000000,   0.29800,
,,,-01.411000000000,   0.30000,
,,,-01.410000000000,   0.30200,
,,,-01.409000000000,   0.30200,
,,,-01.408000000000,   0.30000,
,,,-01.407000000000,   0.30000,
,,,-01.406000000000,   0.29800,
,,,-01.405000000000,   0.30000,
,,,-01.404000000000,   0.29800,
,,,-01.403000000000,   0.29800,
,,,-01.402000000000,   0.30200,
,,,-01.401000000000,   0.30000,
,,,-01.400000000000,   0.30000,
,,,-01.399000000000,   0.29800,
,,,-01.398000000000,   0.30000,
,,,-01.397000000000,   0.30000,
,,,-01.396000000000,   0.30000,
,,,-01.395000000000,   0.29800,
,,,-01.394000000000,   0.30200,
,,,-01.393000000000,   0.29800,
,,,-01.392000000000,   0.30000,
,,,-01.391000000000,   0.29800,
,,,-01.390000000000,   0.30000,
,,,-01.389000000000,   0.30000,
,,,-01.388000000000,   0.29800,
,,,-01.387000000000,   0.30200,
,,,-01.386000000000,   0.30000,
,,,-01.385000000000,   0.29800,
,,,-01.384000000000,   0.29800,
,,,-01.383000000000,   0.30000,
,,,-01.382000000000,   0.30000,
,,,-01.381000000000,   0.30000,
,,,-01.380000000000,   0.30000,
,,,-01.379000000000,   0.30000,
,,,-01.378000000000,   0.30000,
,,,-01.377000000000,   0.30000,
,,,-01.376000000000,   0.30000,
,,,-01.375000000000,   0.29800,
,,,-01.374000000000,   0.29800,
,,,-01.373000000000,   0.30000,
,,,-01.372000000000,   0.30000,
,,,-01.371000000000,   0.30000,
,,,-01.370000000000,   0.29800,
,,,-01.369000000000,   0.30000,
,,,-01.368000000000,   0.30000,
,,,-01.367000000000,   0.30000,
,,,-01.366000000000,   0.30000,
,,,-01.365000000000,   0.30000,
,,,-01.364000000000,   0.29800,
,,,-01.363000000000,   0.30200,
,,,-01.362000000000,   0.30000,
,,,-01.361000000000,   0.29800,
,,,-01.360000000000,   0.30000,
,,,-01.359000000000,   0.29800,
,,,-01.358000000000,   0.30000,
,,,-01.357000000000,   0.30000,
,,,-01.356000000000,   0.30000,
,,,-01.355000000000,   0.30000,
,,,-01.354000000000,   0.30000,
,,,-01.353000000000,   0.30000,
,,,-01.352000000000,   0.30000,
,,,-01.351000000000,   0.30000,
,,,-01.350000000000,   0.30000,
,,,-01.349000000000,   0.29800,
,,,-01.348000000000,   0.30000,
,,,-01.347000000000,   0.30000,
,,,-01.346000000000,   0.29800,
,,,-01.345000000000,   0.29800,
,,,-01.344000000000,   0.30000,
,,,-01.343000000000,   0.30000,
,,,-01.342000000000,   0.29800,
,,,-01.341000000000,   0.29800,
,,,-01.340000000000,   0.30200,
,,,-01.339000000000,   0.29800,
,,,-01.338000000000,   0.30000,
,,,-01.337000000000,   0.30200,
,,,-01.336000000000,   0.30200,
,,,-01.335000000000,   0.30000,
,,,-01.334000000000,   0.30200,
,,,-01.333000000000,   0.30000,
,,,-01.332000000000,   0.30200,
,,,-01.331000000000,   0.30000,
,,,-01.330000000000,   0.30000,
,,,-01.329000000000,   0.30200,
,,,-01.328000000000,   0.30000,
,,,-01.327000000000,   0.30000,
,,,-01.326000000000,   0.30000,
,,,-01.325000000000,   0.29800,
,,,-01.324000000000,   0.30000,
,,,-01.323000000000,   0.30000,
,,,-01.322000000000,   0.30200,
,,,-01.321000000000,   0.30000,
,,,-01.320000000000,   0.30000,
,,,-01.319000000000,   0.30000,
,,,-01.318000000000,   0.29800,
,,,-01.317000000000,   0.30000,
,,,-01.316000000000,   0.29800,
,,,-01.315000000000,   0.30000,
,,,-01.314000000000,   0.29800,
,,,-01.313000000000,   0.30200,
,,,-01.312000000000,   0.30000,
,,,-01.311000000000,   0.30200,
,,,-01.310000000000,   0.30000,
,,,-01.309000000000,   0.30000,
,,,-01.308000000000,   0.30000,
,,,-01.307000000000,   0.30200,
,,,-01.306000000000,   0.30000,
,,,-01.305000000000,   0.30200,
,,,-01.304000000000,   0.30000,
,,,-01.303000000000,   0.30000,
,,,-01.302000000000,   0.30000,
,,,-01.301000000000,   0.30000,
,,,-01.300000000000,   0.30000,
,,,-01.299000000000,   0.30000,
,,,-01.298000000000,   0.29800,
,,,-01.297000000000,   0.30000,
,,,-01.296000000000,   0.30000,
,,,-01.295000000000,   0.30200,
,,,-01.294000000000,   0.30000,
,,,-01.293000000000,   0.30000,
,,,-01.292000000000,   0.30000,
,,,-01.291000000000,   0.30000,
,,,-01.290000000000,   0.30000,
,,,-01.289000000000,   0.30000,
,,,-01.288000000000,   0.30000,
,,,-01.287000000000,   0.30000,
,,,-01.286000000000,   0.30200,
,,,-01.285000000000,   0.30000,
,,,-01.284000000000,   0.30000,
,,,-01.283000000000,   0.30000,
,,,-01.282000000000,   0.29800,
,,,-01.281000000000,   0.30200,
,,,-01.280000000000,   0.30000,
,,,-01.279000000000,   0.30000,
,,,-01.278000000000,   0.30000,
,,,-01.277000000000,   0.29800,
,,,-01.276000000000,   0.30000,
,,,-01.275000000000,   0.30200,
,,,-01.274000000000,   0.30000,
,,,-01.273000000000,   0.30200,
,,,-01.272000000000,   0.29800,
,,,-01.271000000000,   0.30000,
,,,-01.270000000000,   0.30200,
,,,-01.269000000000,   0.30200,
,,,-01.268000000000,   0.30000,
,,,-01.267000000000,   0.30000,
,,,-01.266000000000,   0.30000,
,,,-01.265000000000,   0.30200,
,,,-01.264000000000,   0.29800,
,,,-01.263000000000,   0.30000,
,,,-01.262000000000,   0.30200,
,,,-01.261000000000,   0.30000,
,,,-01.260000000000,   0.30000,
,,,-01.259000000000,   0.29800,
,,,-01.258000000000,   0.30200,
,,,-01.257000000000,   0.30200,
,,,-01.256000000000,   0.30000,
,,,-01.255000000000,   0.30200,
,,,-01.254000000000,   0.30200,
,,,-01.253000000000,   0.30000,
,,,-01.252000000000,   0.30000,
,,,-01.251000000000,   0.30000,
,,,-01.250000000000,   0.29800,
,,,-01.249000000000,   0.30000,
,,,-01.248000000000,   0.30000,
,,,-01.247000000000,   0.30000,
,,,-01.246000000000,   0.30200,
,,,-01.245000000000,   0.30200,
,,,-01.244000000000,   0.30000,
,,,-01.243000000000,   0.30000,
,,,-01.242000000000,   0.30000,
,,,-01.241000000000,   0.30000,
,,,-01.240000000000,   0.30000,
,,,-01.239000000000,   0.30200,
,,,-01.238000000000,   0.30400,
,,,-01.237000000000,   0.30000,
,,,-01.236000000000,   0.30000,
,,,-01.235000000000,   0.30000,
,,,-01.234000000000,   0.30000,
,,,-01.233000000000,   0.30400,
,,,-01.232000000000,   0.30200,
,,,-01.231000000000,   0.30200,
,,,-01.230000000000,   0.30200,
,,,-01.229000000000,   0.30200,
,,,-01.228000000000,   0.30200,
,,,-01.227000000000,   0.30200,
,,,-01.226000000000,   0.30400,
,,,-01.225000000000,   0.30600,
,,,-01.224000000000,   0.30600,
,,,-01.223000000000,   0.30600,
,,,-01.222000000000,   0.30800,
,,,-01.221000000000,   0.30800,
,,,-01.220000000000,   0.31000,
,,,-01.219000000000,   0.31000,
,,,-01.218000000000,   0.31200,
,,,-01.217000000000,   0.31200,
,,,-01.216000000000,   0.31400,
,,,-01.215000000000,   0.31600,
,,,-01.214000000000,   0.31600,
,,,-01.213000000000,   0.31800,
,,,-01.212000000000,   0.31800,
,,,-01.211000000000,   0.32200,
,,,-01.210000000000,   0.32000,
,,,-01.209000000000,   0.32200,
,,,-01.208000000000,   0.32400,
,,,-01.207000000000,   0.32600,
,,,-01.206000000000,   0.32600,
,,,-01.205000000000,   0.32800,
,,,-01.204000000000,   0.33000,
,,,-01.203000000000,   0.33000,
,,,-01.202000000000,   0.33200,
,,,-01.201000000000,   0.33200,
,,,-01.200000000000,   0.33000,
,,,-01.199000000000,   0.33400,
,,,-01.198000000000,   0.33600,
,,,-01.197000000000,   0.33800,
,,,-01.196000000000,   0.34000,
,,,-01.195000000000,   0.34000,
,,,-01.194000000000,   0.34000,
,,,-01.193000000000,   0.34200,
,,,-01.192000000000,   0.34200,
,,,-01.191000000000,   0.34400,
,,,-01.190000000000,   0.34600,
,,,-01.189000000000,   0.34800,
,,,-01.188000000000,   0.34800,
,,,-01.187000000000,   0.34800,
,,,-01.186000000000,   0.35000,
,,,-01.185000000000,   0.35200,
,,,-01.184000000000,   0.35400,
,,,-01.183000000000,   0.35400,
,,,-01.182000000000,   0.35600,
,,,-01.181000000000,   0.35600,
,,,-01.180000000000,   0.35800,
,,,-01.179000000000,   0.36000,
,,,-01.178000000000,   0.35800,
,,,-01.177000000000,   0.36200,
,,,-01.176000000000,   0.36200,
,,,-01.175000000000,   0.36200,
,,,-01.174000000000,   0.36400,
,,,-01.173000000000,   0.36600,
,,,-01.172000000000,   0.36800,
,,,-01.171000000000,   0.36800,
,,,-01.170000000000,   0.36800,
,,,-01.169000000000,   0.37200,
,,,-01.168000000000,   0.37200,
,,,-01.167000000000,   0.37600,
,,,-01.166000000000,   0.37400,
,,,-01.165000000000,   0.37400,
,,,-01.164000000000,   0.37800,
,,,-01.163000000000,   0.37800,
,,,-01.162000000000,   0.37600,
,,,-01.161000000000,   0.38200,
,,,-01.160000000000,   0.38200,
,,,-01.159000000000,   0.38000,
,,,-01.158000000000,   0.38400,
,,,-01.157000000000,   0.38600,
,,,-01.156000000000,   0.38400,
,,,-01.155000000000,   0.38400,
,,,-01.154000000000,   0.38800,
,,,-01.153000000000,   0.38800,
,,,-01.152000000000,   0.38800,
,,,-01.151000000000,   0.39200,
,,,-01.150000000000,   0.39200,
,,,-01.149000000000,   0.39400,
,,,-01.148000000000,   0.39200,
,,,-01.147000000000,   0.39600,
,,,-01.146000000000,   0.39600,
,,,-01.145000000000,   0.39600,
,,,-01.144000000000,   0.39800,
,,,-01.143000000000,   0.40000,
,,,-01.142000000000,   0.40000,
,,,-01.141000000000,   0.40200,
,,,-01.140000000000,   0.40200,
,,,-01.139000000000,   0.40200,
,,,-01.138000000000,   0.40600,
,,,-01.137000000000,   0.40400,
,,,-01.136000000000,   0.40600,
,,,-01.135000000000,   0.40800,
,,,-01.134000000000,   0.40800,
,,,-01.133000000000,   0.41000,
,,,-01.132000000000,   0.41200,
,,,-01.131000000000,   0.41200,
,,,-01.130000000000,   0.41400,
,,,-01.129000000000,   0.41400,
,,,-01.128000000000,   0.41600,
,,,-01.127000000000,   0.41600,
,,,-01.126000000000,   0.41800,
,,,-01.125000000000,   0.41800,
,,,-01.124000000000,   0.42000,
,,,-01.123000000000,   0.42000,
,,,-01.122000000000,   0.42200,
,,,-01.121000000000,   0.42400,
,,,-01.120000000000,   0.42400,
,,,-01.119000000000,   0.42600,
,,,-01.118000000000,   0.42600,
,,,-01.117000000000,   0.42600,
,,,-01.116000000000,   0.42800,
,,,-01.115000000000,   0.43000,
,,,-01.114000000000,   0.43000,
,,,-01.113000000000,   0.43200,
,,,-01.112000000000,   0.43200,
,,,-01.111000000000,   0.43400,
,,,-01.110000000000,   0.43200,
,,,-01.109000000000,   0.43600,
,,,-01.108000000000,   0.43600,
,,,-01.107000000000,   0.43600,
