docs/examples/records/TEK0010.CSV

Record Length,2.500000e+03,,  -0.064000000000,   0.34680,
Sample Interval,2.000000e-04,,  -0.063800000000,   0.34600,
Trigger Point,3.200000000000e+02,,  -0.063600000000,   0.34680,
,,,  -0.063400000000,   0.34680,
,,,  -0.063200000000,   0.34640,
,,,  -0.063000000000,   0.34640,
Source,CH1,,  -0.062800000000,   0.34640,
Vertical Units,V,,  -0.062600000000,   0.34680,
Vertical Scale,1.000000e-02,,  -0.062400000000,   0.34600,
Vertical Offset,-3.144000e-01,,  -0.062200000000,   0.34720,
Horizontal Units,s,,  -0.062000000000,   0.34640,
Horizontal Scale,5.000000e-02,,  -0.061800000000,   0.34640,
Pt Fmt,Y,,  -0.061600000000,   0.34680,
Yzero,0.000000e+00,,  -0.061400000000,   0.34640,
Probe Atten,1.000000e+00,,  -0.061200000000,   0.34720,
Model Number,TDS2012B,,  -0.061000000000,   0.34600,
Serial Number,C102158,,  -0.060800000000,   0.34640,
Firmware Version,FV:v22.11,,  -0.060600000000,   0.34720,
,,,-00.060400000000,   0.34640,
,,,-00.060200000000,   0.34560,
,,,-00.060000000000,   0.34680,
,,,-00.059800000000,   0.34640,
,,,-00.059600000000,   0.34640,
,,,-00.059400000000,   0.34680,
,,,-00.059200000000,   0.34640,
,,,-00.059000000000,   0.34600,
,,,-00.058800000000,   0.34640,
,,,-00.058600000000,   0.34600,
,,,-00.058400000000,   0.34680,
,,,-00.058200000000,   0.34680,
,,,-00.058000000000,   0.34640,
,,,-00.057800000000,   0.34640,
,,,-00.057600000000,   0.34600,
,,,-00.057400000000,   0.34680,
,,,-00.057200000000,   0.34680,
,,,-00.057000000000,   0.34640,
,,,-00.056800000000,   0.34720,
,,,-00.056600000000,   0.34680,
,,,-00.056400000000,   0.34640,
,,,-00.056200000000,   0.34640,
,,,-00.056000000000,   0.34600,
,,,-00.055800000000,   0.34680,
,,,-00.055600000000,   0.34720,
,,,-00.055400000000,   0.34680,
,,,-00.055200000000,   0.34640,
,,,-00.055000000000,   0.34680,
,,,-00.054800000000,   0.34680,
,,,-00.054600000000,   0.34720,
,,,-00.054400000000,   0.34680,
,,,-00.054200000000,   0.34680,
,,,-00.054000000000,   0.34680,
,,,-00.053800000000,   0.34720,
,,,-00.053600000000,   0.34640,
,,,-00.053400000000,   0.34680,
,,,-00.053200000000,   0.34640,
,,,-00.053000000000,   0.34640,
,,,-00.052800000000,   0.34640,
,,,-00.052600000000,   0.34600,
,,,-00.052400000000,   0.34680,
,,,-00.052200000000,   0.34600,
,,,-00.052000000000,   0.34640,
,,,-00.051800000000,   0.34680,
,,,-00.051600000000,   0.34640,
,,,-00.051400000000,   0.34640,
,,,-00.051200000000,   0.34680,
,,,-00.051000000000,   0.34680,
,,,-00.050800000000,   0.34640,
,,,-00.050600000000,   0.34640,
,,,-00.050400000000,   0.34640,
,,,-00.050200000000,   0.34680,
,,,-00.050000000000,   0.34640,
,,,-00.049800000000,   0.34680,
,,,-00.049600000000,   0.34680,
,,,-00.049400000000,   0.34680,
,,,-00.049200000000,   0.34720,
,,,-00.049000000000,   0.34720,
,,,-00.048800000000,   0.34680,
,,,-00.048600000000,   0.34680,
,,,-00.048400000000,   0.34720,
,,,-00.048200000000,   0.34600,
,,,-00.048000000000,   0.34680,
,,,-00.047800000000,   0.34640,
,,,-00.047600000000,   0.34680,
,,,-00.047400000000,   0.34640,
,,,-00.047200000000,   0.34600,
,,,-00.047000000000,   0.34640,
,,,-00.046800000000,   0.34680,
,,,-00.046600000000,   0.34760,
,,,-00.046400000000,   0.34640,
,,,-00.046200000000,   0.34720,
,,,-00.046000000000,   0.34680,
,,,-00.045800000000,   0.34680,
,,,-00.045600000000,   0.34640,
,,,-00.045400000000,   0.34640,
,,,-00.045200000000,   0.34640,
,,,-00.045000000000,   0.34640,
,,,-00.044800000000,   0.34640,
,,,-00.044600000000,   0.34680,
,,,-00.044400000000,   0.34600,
,,,-00.044200000000,   0.34640,
,,,-00.044000000000,   0.34680,
,,,-00.043800000000,   0.34680,
,,,-00.043600000000,   0.34640,
,,,-00.043400000000,   0.34640,
,,,-00.043200000000,   0.34680,
,,,-00.043000000000,   0.34680,
,,,-00.042800000000,   0.34600,
,,,-00.042600000000,   0.34600,
,,,-00.042400000000,   0.34640,
,,,-00.042200000000,   0.34640,
,,,-00.042000000000,   0.34640,
,,,-00.041800000000,   0.34680,
,,,-00.041600000000,   0.34640,
,,,-00.041400000000,   0.34600,
,,,-00.041200000000,   0.34720,
,,,-00.041000000000,   0.34640,
,,,-00.040800000000,   0.34640,
,,,-00.040600000000,   0.34640,
,,,-00.040400000000,   0.34640,
,,,-00.040200000000,   0.34600,
,,,-00.040000000000,   0.34640,
,,,-00.039800000000,   0.34760,
,,,-00.039600000000,   0.34760,
,,,-00.039400000000,   0.34680,
,,,-00.039200000000,   0.34640,
,,,-00.039000000000,   0.34680,
,,,-00.038800000000,   0.34680,
,,,-00.038600000000,   0.34680,
,,,-00.038400000000,   0.34640,
,,,-00.038200000000,   0.34680,
,,,-00.038000000000,   0.34640,
,,,-00.037800000000,   0.34600,
,,,-00.037600000000,   0.34720,
,,,-00.037400000000,   0.34680,
,,,-00.037200000000,   0.34680,
,,,-00.037000000000,   0.34640,
,,,-00.036800000000,   0.34600,
,,,-00.036600000000,   0.34680,
,,,-00.036400000000,   0.34600,
,,,-00.036200000000,   0.34640,
,,,-00.036000000000,   0.34600,
,,,-00.035800000000,   0.34680,
,,,-00.035600000000,   0.34640,
,,,-00.035400000000,   0.34600,
,,,-00.035200000000,   0.34680,
,,,-00.035000000000,   0.34640,
,,,-00.034800000000,   0.34640,
,,,-00.034600000000,   0.34640,
,,,-00.034400000000,   0.34680,
,,,-00.034200000000,   0.34720,
,,,-00.034000000000,   0.34640,
,,,-00.033800000000,   0.34640,
,,,-00.033600000000,   0.34680,
,,,-00.033400000000,   0.34680,
,,,-00.033200000000,   0.34600,
,,,-00.033000000000,   0.34640,
,,,-00.032800000000,   0.34800,
,,,-00.032600000000,   0.34720,
,,,-00.032400000000,   0.34720,
,,,-00.032200000000,   0.34640,
,,,-00.032000000000,   0.34680,
,,,-00.031800000000,   0.34680,
,,,-00.031600000000,   0.34680,
,,,-00.031400000000,   0.34640,
,,,-00.031200000000,   0.34680,
,,,-00.031000000000,   0.34600,
,,,-00.030800000000,   0.34640,
,,,-00.030600000000,   0.34680,
,,,-00.030400000000,   0.34640,
,,,-00.030200000000,   0.34720,
,,,-00.030000000000,   0.34640,
,,,-00.029800000000,   0.34640,
,,,-00.029600000000,   0.34640,
,,,-00.029400000000,   0.34640,
,,,-00.029200000000,   0.34600,
,,,-00.029000000000,   0.34600,
,,,-00.028800000000,   0.34720,
,,,-00.028600000000,   0.34640,
,,,-00.028400000000,   0.34720,
,,,-00.028200000000,   0.34680,
,,,-00.028000000000,   0.34600,
,,,-00.027800000000,   0.34680,
,,,-00.027600000000,   0.34640,
,,,-00.027400000000,   0.34640,
,,,-00.027200000000,   0.34640,
,,,-00.027000000000,   0.34600,
,,,-00.026800000000,   0.34640,
,,,-00.026600000000,   0.34640,
,,,-00.026400000000,   0.34640,
,,,-00.026200000000,   0.34640,
,,,-00.026000000000,   0.34680,
,,,-00.025800000000,   0.34640,
,,,-00.025600000000,   0.34600,
,,,-00.025400000000,   0.34680,
,,,-00.025200000000,   0.34640,
,,,-00.025000000000,   0.34600,
,,,-00.024800000000,   0.34640,
,,,-00.024600000000,   0.34640,
,,,-00.024400000000,   0.34680,
,,,-00.024200000000,   0.34640,
,,,-00.024000000000,   0.34600,
,,,-00.023800000000,   0.34720,
,,,-00.023600000000,   0.34720,
,,,-00.023400000000,   0.34680,
,,,-00.023200000000,   0.34600,
,,,-00.023000000000,   0.34640,
,,,-00.022800000000,   0.34680,
,,,-00.022600000000,   0.34640,
,,,-00.022400000000,   0.34680,
,,,-00.022200000000,   0.34640,
,,,-00.022000000000,   0.34720,
,,,-00.021800000000,   0.34640,
,,,-00.021600000000,   0.34720,
,,,-00.021400000000,   0.34680,
,,,-00.021200000000,   0.34680,
,,,-00.021000000000,   0.34600,
,,,-00.020800000000,   0.34680,
,,,-00.020600000000,   0.34640,
,,,-00.020400000000,   0.34680,
,,,-00.020200000000,   0.34680,
,,,-00.020000000000,   0.34640,
,,,-00.019800000000,   0.34680,
,,,-00.019600000000,   0.34680,
,,,-00.019400000000,   0.34680,
,,,-00.019200000000,   0.34760,
,,,-00.019000000000,   0.34680,
,,,-00.018800000000,   0.34600,
,,,-00.018600000000,   0.34680,
,,,-00.018400000000,   0.34680,
,,,-00.018200000000,   0.34640,
,,,-00.018000000000,   0.34640,
,,,-00.017800000000,   0.34680,
,,,-00.017600000000,   0.34680,
,,,-00.017400000000,   0.34680,
,,,-00.017200000000,   0.34640,
,,,-00.017000000000,   0.34680,
,,,-00.016800000000,   0.34680,
,,,-00.016600000000,   0.34640,
,,,-00.016400000000,   0.34600,
,,,-00.016200000000,   0.34640,
,,,-00.016000000000,   0.34680,
,,,-00.015800000000,   0.34720,
,,,-00.015600000000,   0.34680,
,,,-00.015400000000,   0.34720,
,,,-00.015200000000,   0.34640,
,,,-00.015000000000,   0.34640,
,,,-00.014800000000,   0.34680,
,,,-00.014600000000,   0.34680,
,,,-00.014400000000,   0.34640,
,,,-00.014200000000,   0.34560,
,,,-00.014000000000,   0.34640,
,,,-00.013800000000,   0.34680,
,,,-00.013600000000,   0.34680,
,,,-00.013400000000,   0.34640,
,,,-00.013200000000,   0.34680,
,,,-00.013000000000,   0.34640,
,,,-00.012800000000,   0.34640,
,,,-00.012600000000,   0.34640,
,,,-00.012400000000,   0.34640,
,,,-00.012200000000,   0.34600,
,,,-00.012000000000,   0.34640,
,,,-00.011800000000,   0.34640,
,,,-00.011600000000,   0.34640,
,,,-00.011400000000,   0.34680,
,,,-00.011200000000,   0.34640,
,,,-00.011000000000,   0.34640,
,,,-00.010800000000,   0.34640,
,,,-00.010600000000,   0.34720,
,,,-00.010400000000,   0.34640,
,,,-00.010200000000,   0.34680,
,,,-00.010000000000,   0.34640,
,,,-00.009800000000,   0.34640,
,,,-00.009600000000,   0.34720,
,,,-00.009400000000,   0.34680,
,,,-00.009200000000,   0.34680,
,,,-00.009000000000,   0.34640,
,,,-00.008800000000,   0.34640,
,,,-00.008600000000,   0.34640,
,,,-00.008400000000,   0.34640,
,,,-00.008200000000,   0.34680,
,,,-00.008000000000,   0.34640,
,,,-00.007800000000,   0.34640,
,,,-00.007600000000,   0.34680,
,,,-00.007400000000,   0.34640,
,,,-00.007200000000,   0.34680,
,,,-00.007000000000,   0.34680,
,,,-00.006800000000,   0.34680,
,,,-00.006600000000,   0.34680,
,,,-00.006400000000,   0.34640,
,,,-00.006200000000,   0.34680,
,,,-00.006000000000,   0.34640,
,,,-00.005800000000,   0.34640,
,,,-00.005600000000,   0.34680,
,,,-00.005400000000,   0.34640,
,,,-00.005200000000,   0.34680,
,,,-00.005000000000,   0.34680,
,,,-00.004800000000,   0.34760,
,,,-00.004600000000,   0.34680,
,,,-00.004400000000,   0.34680,
,,,-00.004200000000,   0.34760,
,,,-00.004000000000,   0.34680,
,,,-00.003800000000,   0.34640,
,,,-00.003600000000,   0.34640,
,,,-00.003400000000,   0.34680,
,,,-00.003200000000,   0.34640,
,,,-00.003000000000,   0.34640,
,,,-00.002800000000,   0.34760,
,,,-00.002600000000,   0.34640,
,,,-00.002400000000,   0.34640,
,,,-00.002200000000,   0.34640,
,,,-00.002000000000,   0.34680,
,,,-00.001800000000,   0.34640,
,,,-00.001600000000,   0.34720,
,,,-00.001400000000,   0.34600,
,,,-00.001200000000,   0.34640,
,,,-00.001000000000,   0.34640,
,,,-00.000800000000,   0.34600,
,,,-00.000600000000,   0.34400,
,,,-00.000400000000,   0.34000,
,,,-00.000200000000,   0.33640,
,,,-00.000000000000,   0.33400,
,,,00.000200000000,   0.33040,
,,,00.000400000000,   0.32760,
,,,00.000600000000,   0.32520,
,,,00.000800000000,   0.32120,
,,,00.001000000000,   0.31920,
,,,00.001200000000,   0.31720,
,,,00.001400000000,   0.31440,
,,,00.001600000000,   0.31240,
,,,00.001800000000,   0.31040,
,,,00.002000000000,   0.30800,
,,,00.002200000000,   0.30680,
,,,00.002400000000,   0.30440,
,,,00.002600000000,   0.30280,
,,,00.002800000000,   0.30200,
,,,00.003000000000,   0.30000,
,,,00.003200000000,   0.29920,
,,,00.003400000000,   0.29760,
,,,00.003600000000,   0.29640,
,,,00.003800000000,   0.29560,
,,,00.004000000000,   0.29360,
,,,00.004200000000,   0.29280,
,,,00.004400000000,   0.29200,
,,,00.004600000000,   0.29080,
,,,00.004800000000,   0.29120,
,,,00.005000000000,   0.28960,
,,,00.005200000000,   0.28920,
,,,00.005400000000,   0.28840,
,,,00.005600000000,   0.28720,
,,,00.005800000000,   0.28800,
,,,00.006000000000,   0.28680,
,,,00.006200000000,   0.28640,
,,,00.006400000000,   0.28600,
,,,00.006600000000,   0.28560,
,,,00.006800000000,   0.28440,
,,,00.007000000000,   0.28480,
,,,00.007200000000,   0.28400,
,,,00.007400000000,   0.28480,
,,,00.007600000000,   0.28400,
,,,00.007800000000,   0.28400,
,,,00.008000000000,   0.28400,
,,,00.008200000000,   0.28440,
,,,00.008400000000,   0.28400,
,,,00.008600000000,   0.28320,
,,,00.008800000000,   0.28320,
,,,00.009000000000,   0.28360,
,,,00.009200000000,   0.28320,
,,,00.009400000000,   0.28320,
,,,00.009600000000,   0.28320,
,,,00.009800000000,   0.28400,
,,,00.010000000000,   0.28320,
,,,00.010200000000,   0.28440,
,,,00.010400000000,   0.28400,
,,,00.010600000000,   0.28440,
,,,00.010800000000,   0.28320,
,,,00.011000000000,   0.28400,
,,,00.011200000000,   0.28440,
,,,00.011400000000,   0.28440,
,,,00.011600000000,   0.28400,
,,,00.011800000000,   0.28520,
,,,00.012000000000,   0.28520,
,,,00.012200000000,   0.28520,
,,,00.012400000000,   0.28560,
,,,00.012600000000,   0.28480,
,,,00.012800000000,   0.28520,
,,,00.013000000000,   0.28560,
,,,00.013200000000,   0.28520,
,,,00.013400000000,   0.28600,
,,,00.013600000000,   0.28520,
,,,00.013800000000,   0.28600,
,,,00.014000000000,   0.28720,
,,,00.014200000000,   0.28560,
,,,00.014400000000,   0.28680,
,,,00.014600000000,   0.28760,
,,,00.014800000000,   0.28640,
,,,00.015000000000,   0.28840,
,,,00.015200000000,   0.28800,
,,,00.015400000000,   0.28840,
,,,00.015600000000,   0.28840,
,,,00.015800000000,   0.28840,
,,,00.016000000000,   0.28880,
,,,00.016200000000,   0.28880,
,,,00.016400000000,   0.28960,
,,,00.016600000000,   0.28920,
,,,00.016800000000,   0.28960,
,,,00.017000000000,   0.29040,
,,,00.017200000000,   0.29000,
,,,00.017400000000,   0.29080,
,,,00.017600000000,   0.29120,
,,,00.017800000000,   0.29160,
,,,00.018000000000,   0.29120,
,,,00.018200000000,   0.29120,
,,,00.018400000000,   0.29160,
,,,00.018600000000,   0.29120,
,,,00.018800000000,   0.29240,
,,,00.019000000000,   0.29240,
,,,00.019200000000,   0.29240,
,,,00.019400000000,   0.29280,
,,,00.019600000000,   0.29280,
,,,00.019800000000,   0.29280,
,,,00.020000000000,   0.29360,
,,,00.020200000000,   0.29320,
,,,00.020400000000,   0.29400,
,,,00.020600000000,   0.29360,
,,,00.020800000000,   0.29360,
,,,00.021000000000,   0.29440,
,,,00.021200000000,   0.29440,
,,,00.021400000000,   0.29480,
,,,00.021600000000,   0.29480,
,,,00.021800000000,   0.29480,
,,,00.022000000000,   0.29600,
,,,00.022200000000,   0.29600,
,,,00.022400000000,   0.29600,
,,,00.022600000000,   0.29640,
,,,00.022800000000,   0.29680,
,,,00.023000000000,   0.29640,
,,,00.023200000000,   0.29680,
,,,00.023400000000,   0.29680,
,,,00.023600000000,   0.29760,
,,,00.023800000000,   0.29720,
,,,00.024000000000,   0.29760,
,,,00.024200000000,   0.29760,
,,,00.024400000000,   0.29800,
,,,00.024600000000,   0.29800,
,,,00.024800000000,   0.29840,
,,,00.025000000000,   0.29920,
,,,00.025200000000,   0.29920,
,,,00.025400000000,   0.29920,
,,,00.025600000000,   0.29960,
,,,00.025800000000,   0.30000,
,,,00.026000000000,   0.30040,
,,,00.026200000000,   0.30000,
,,,00.026400000000,   0.30000,
,,,00.026600000000,   0.29960,
,,,00.026800000000,   0.30000,
,,,00.027000000000,   0.30160,
,,,00.027200000000,   0.30040,
,,,00.027400000000,   0.30160,
,,,00.027600000000,   0.30120,
,,,00.027800000000,   0.30200,
,,,00.028000000000,   0.30160,
,,,00.028200000000,   0.30240,
,,,00.028400000000,   0.30280,
,,,00.028600000000,   0.30280,
,,,00.028800000000,   0.30280,
,,,00.029000000000,   0.30280,
,,,00.029200000000,   0.30280,
,,,00.029400000000,   0.30240,
,,,00.029600000000,   0.30240,
,,,00.029800000000,   0.30360,
,,,00.030000000000,   0.30360,
,,,00.030200000000,   0.30400,
,,,00.030400000000,   0.30400,
,,,00.030600000000,   0.30400,
,,,00.030800000000,   0.30440,
,,,00.031000000000,   0.30440,
,,,00.031200000000,   0.30520,
,,,00.031400000000,   0.30480,
,,,00.031600000000,   0.30520,
,,,00.031800000000,   0.30520,
,,,00.032000000000,   0.30560,
,,,00.032200000000,   0.30560,
,,,00.032400000000,   0.30560,
,,,00.032600000000,   0.30560,
,,,00.032800000000,   0.30600,
,,,00.033000000000,   0.30640,
,,,00.033200000000,   0.30720,
,,,00.033400000000,   0.30640,
,,,00.033600000000,   0.30640,
,,,00.033800000000,   0.30760,
,,,00.034000000000,   0.30680,
,,,00.034200000000,   0.30760,
,,,00.034400000000,   0.30680,
,,,00.034600000000,   0.30800,
,,,00.034800000000,   0.30760,
,,,00.035000000000,   0.30760,
,,,00.035200000000,   0.30760,
,,,00.035400000000,   0.30800,
,,,00.035600000000,   0.30840,
,,,00.035800000000,   0.30880,
,,,00.036000000000,   0.30880,
,,,00.036200000000,   0.30880,
,,,00.036400000000,   0.30920,
,,,00.036600000000,   0.30840,
,,,00.036800000000,   0.30880,
,,,00.037000000000,   0.30880,
,,,00.037200000000,   0.30880,
,,,00.037400000000,   0.30920,
,,,00.037600000000,   0.30920,
,,,00.037800000000,   0.30960,
,,,00.038000000000,   0.31000,
,,,00.038200000000,   0.31000,
,,,00.038400000000,   0.31000,
,,,00.038600000000,   0.31000,
,,,00.038800000000,   0.31040,
,,,00.039000000000,   0.31120,
,,,00.039200000000,   0.31160,
,,,00.039400000000,   0.31040,
,,,00.039600000000,   0.31080,
,,,00.039800000000,   0.31200,
,,,00.040000000000,   0.31120,
,,,00.040200000000,   0.31200,
,,,00.040400000000,   0.31160,
,,,00.040600000000,   0.31160,
,,,00.040800000000,   0.31160,
,,,00.041000000000,   0.31240,
,,,00.041200000000,   0.31200,
,,,00.041400000000,   0.31240,
,,,00.041600000000,   0.31240,
,,,00.041800000000,   0.31240,
,,,00.042000000000,   0.31200,
,,,00.042200000000,   0.31280,
,,,00.042400000000,   0.31240,
,,,00.042600000000,   0.31280,
,,,00.042800000000,   0.31320,
,,,00.043000000000,   0.31360,
,,,00.043200000000,   0.31240,
,,,00.043400000000,   0.31280,
,,,00.043600000000,   0.31320,
,,,00.043800000000,   0.31360,
,,,00.044000000000,   0.31320,
,,,00.044200000000,   0.31400,
,,,00.044400000000,   0.31440,
,,,00.044600000000,   0.31400,
,,,00.044800000000,   0.31480,
,,,00.045000000000,   0.31480,
,,,00.045200000000,   0.31480,
,,,00.045400000000,   0.31440,
,,,00.045600000000,   0.31480,
,,,00.045800000000,   0.31520,
,,,00.046000000000,   0.31480,
,,,00.046200000000,   0.31480,
,,,00.046400000000,   0.31520,
,,,00.046600000000,   0.31520,
,,,00.046800000000,   0.31560,
,,,00.047000000000,   0.31520,
,,,00.047200000000,   0.31560,
,,,00.047400000000,   0.31560,
,,,00.047600000000,   0.31600,
,,,00.047800000000,   0.31560,
,,,00.048000000000,   0.31600,
,,,00.048200000000,   0.31600,
,,,00.048400000000,   0.31640,
,,,00.048600000000,   0.31640,
,,,00.048800000000,   0.31640,
,,,00.049000000000,   0.31640,
,,,00.049200000000,   0.31720,
,,,00.049400000000,   0.31640,
,,,00.049600000000,   0.31680,
,,,00.049800000000,   0.31680,
,,,00.050000000000,   0.31640,
,,,00.050200000000,   0.31760,
,,,00.050400000000,   0.31720,
,,,00.050600000000,   0.31800,
,,,00.050800000000,   0.31800,
,,,00.051000000000,   0.31840,
,,,00.051200000000,   0.31840,
,,,00.051400000000,   0.31760,
,,,00.051600000000,   0.31840,
,,,00.051800000000,   0.31760,
,,,00.052000000000,   0.31800,
,,,00.052200000000,   0.31880,
,,,00.052400000000,   0.31880,
,,,00.052600000000,   0.31800,
,,,00.052800000000,   0.31880,
,,,00.053000000000,   0.31840,
,,,00.053200000000,   0.31880,
,,,00.053400000000,   0.31840,
,,,00.053600000000,   0.31880,
,,,00.053800000000,   0.31880,
,,,00.054000000000,   0.31880,
,,,00.054200000000,   0.31920,
,,,00.054400000000,   0.31880,
,,,00.054600000000,   0.31920,
,,,00.054800000000,   0.31960,
,,,00.055000000000,   0.31920,
,,,00.055200000000,   0.31920,
,,,00.055400000000,   0.31960,
,,,00.055600000000,   0.32000,
,,,00.055800000000,   0.32080,
,,,00.056000000000,   0.32000,
,,,00.056200000000,   0.31960,
,,,00.056400000000,   0.32000,
,,,00.056600000000,   0.31960,
,,,00.056800000000,   0.32040,
,,,00.057000000000,   0.32000,
,,,00.057200000000,   0.32000,
,,,00.057400000000,   0.32080,
,,,00.057600000000,   0.32080,
,,,00.057800000000,   0.32080,
,,,00.058000000000,   0.32000,
,,,00.058200000000,   0.32160,
,,,00.058400000000,   0.32040,
,,,00.058600000000,   0.32040,
,,,00.058800000000,   0.32120,
,,,00.059000000000,   0.32080,
,,,00.059200000000,   0.32120,
,,,00.059400000000,   0.32080,
,,,00.059600000000,   0.32160,
,,,00.059800000000,   0.32160,
,,,00.060000000000,   0.32120,
,,,00.060200000000,   0.32200,
,,,00.060400000000,   0.32160,
